[gd_scene load_steps=3 format=1]

[ext_resource path="res://addons/digivgamepad/tests/inputdebugger.gd" type="Script" id=1]
[ext_resource path="res://addons/digivgamepad/vgamepad.gd" type="Script" id=2]

[node name="Main" type="Panel"]

anchor/right = 1
anchor/bottom = 1
focus/ignore_mouse = false
focus/stop_mouse = true
size_flags/horizontal = 2
size_flags/vertical = 2
margin/left = 0.0
margin/top = 0.0
margin/right = 0.0
margin/bottom = 0.0
script/script = ExtResource( 1 )

[node name="CanvasLayer" type="CanvasLayer" parent="."]

layer = 1
offset = Vector2( 0, 0 )
rotation = 0.0
scale = Vector2( 1, 1 )

[node name="VGamepad" type="Container" parent="CanvasLayer"]

anchor/top = 2
anchor/right = 1
anchor/bottom = 1
focus/ignore_mouse = false
focus/stop_mouse = true
size_flags/horizontal = 2
size_flags/vertical = 2
margin/left = 0.0
margin/top = 0.6
margin/right = 0.0
margin/bottom = 0.0
script/script = ExtResource( 2 )
stick_background_color = Color( 1, 1, 1, 1 )
stick_color = Color( 1, 1, 1, 1 )
button1_color = Color( 1, 1, 1, 1 )
button2_color = Color( 1, 1, 1, 1 )
button3_color = Color( 1, 1, 1, 1 )
button4_color = Color( 1, 1, 1, 1 )
button5_color = Color( 1, 1, 1, 1 )
button6_color = Color( 1, 1, 1, 1 )
button7_color = Color( 1, 1, 1, 1 )
button8_color = Color( 1, 1, 1, 1 )
button9_color = Color( 1, 1, 1, 1 )
stick1_action_hysteresis_value = 0.6
stick2_action_hysteresis_value = 0.6
device_index = 2
number_of_buttons = 9
number_of_sticks = 2

[node name="Container" type="GridContainer" parent="."]

focus/ignore_mouse = false
focus/stop_mouse = false
size_flags/horizontal = 2
size_flags/vertical = 2
margin/left = 0.0
margin/top = 0.0
margin/right = 367.0
margin/bottom = 22.0
columns = 5

[node name="DebugTypeLabel" type="Label" parent="Container"]

focus/ignore_mouse = true
focus/stop_mouse = true
size_flags/horizontal = 2
size_flags/vertical = 0
margin/left = 0.0
margin/top = 4.0
margin/right = 147.0
margin/bottom = 18.0
text = "Type of input to debug:"
percent_visible = 1.0
lines_skipped = 0
max_lines_visible = -1

[node name="DebugTypeCombo" type="OptionButton" parent="Container"]

focus/ignore_mouse = false
focus/stop_mouse = true
size_flags/horizontal = 2
size_flags/vertical = 2
margin/left = 151.0
margin/top = 0.0
margin/right = 190.0
margin/bottom = 22.0
toggle_mode = false
enabled_focus_mode = 2
shortcut = null
flat = false
align = 0
selected = -1
items = [  ]

[node name="DebugLabel" type="Label" parent="Container"]

focus/ignore_mouse = true
focus/stop_mouse = true
size_flags/horizontal = 2
size_flags/vertical = 0
margin/left = 194.0
margin/top = 4.0
margin/right = 239.0
margin/bottom = 18.0
text = "Debug:"
percent_visible = 1.0
lines_skipped = 0
max_lines_visible = -1

[node name="DebugToggle" type="CheckButton" parent="Container"]

focus/ignore_mouse = false
focus/stop_mouse = true
size_flags/horizontal = 2
size_flags/vertical = 2
margin/left = 243.0
margin/top = 0.0
margin/right = 319.0
margin/bottom = 22.0
toggle_mode = true
enabled_focus_mode = 2
shortcut = null
flat = false
align = 0

[node name="ClearButton" type="Button" parent="Container"]

focus/ignore_mouse = false
focus/stop_mouse = true
size_flags/horizontal = 2
size_flags/vertical = 2
margin/left = 323.0
margin/top = 0.0
margin/right = 367.0
margin/bottom = 22.0
toggle_mode = false
enabled_focus_mode = 2
shortcut = null
text = "Clear"
flat = false

[node name="Debugger" type="RichTextLabel" parent="."]

anchor/right = 1
anchor/bottom = 1
focus/ignore_mouse = false
focus/stop_mouse = true
size_flags/horizontal = 2
size_flags/vertical = 2
margin/left = 0.0
margin/top = 50.0
margin/right = 0.0
margin/bottom = 0.0
bbcode/enabled = false
bbcode/bbcode = ""
visible_characters = -1


